sim/ghdl/tb_ac.vcd
$date
  Mon Nov 16 18:56:45 2020
$end
$version
  GHDL v0
$end
$timescale
  1 fs
$end
$var reg 1 ! s_clk $end
$var reg 1 " s_reset_n $end
$var reg 4 # s_inputs[3:0] $end
$var reg 8 $ s_result[7:0] $end
$scope module uut $end
$var reg 1 % clk $end
$var reg 1 & reset_n $end
$var reg 4 ' inputs[3:0] $end
$var reg 8 ( result[7:0] $end
$var reg 8 ) s_cnt[7:0] $end
$var reg 4 * s_inputs[3:0] $end
$upscope $end
$enddefinitions $end
#0
0!
0"
b0001 #
bUUUUUUUU $
0%
0&
b0001 '
bUUUUUUUU (
bUUUUUUUU )
bUUUU *
#10000000
1!
b00000000 $
1%
b00000000 (
b00000000 )
b0001 *
#20000000
0!
1"
b0101 #
0%
1&
b0101 '
#30000000
1!
b00000001 $
1%
b00000001 (
b00000001 )
b0101 *
#40000000
0!
b1111 #
0%
b1111 '
#50000000
1!
b00000011 $
1%
b00000011 (
b00000011 )
b1111 *
#60000000
0!
b0000 #
0%
b0000 '
#70000000
1!
b00000111 $
1%
b00000111 (
b00000111 )
b0000 *
#80000000
0!
b1011 #
0%
b1011 '
#90000000
1!
b00001010 $
1%
b00001010 (
b00001010 )
b1011 *
#100000000
0!
b1010 #
0%
b1010 '
#110000000
1!
b00001011 $
1%
b00001011 (
b00001011 )
b1010 *
#120000000
0!
b0001 #
0%
b0001 '
#130000000
1!
b00001110 $
1%
b00001110 (
b00001110 )
b0001 *
#140000000
0!
b0101 #
0%
b0101 '
#150000000
1!
b00001111 $
1%
b00001111 (
b00001111 )
b0101 *
#160000000
0!
b1111 #
0%
b1111 '
#170000000
1!
b00010001 $
1%
b00010001 (
b00010001 )
b1111 *
#180000000
0!
b0000 #
0%
b0000 '
#190000000
1!
b00010101 $
1%
b00010101 (
b00010101 )
b0000 *
#200000000
0!
b1011 #
0%
b1011 '
#210000000
1!
b00011000 $
1%
b00011000 (
b00011000 )
b1011 *
#220000000
0!
b1010 #
0%
b1010 '
#230000000
1!
b00011001 $
1%
b00011001 (
b00011001 )
b1010 *
#240000000
0!
b0001 #
0%
b0001 '
#250000000
1!
b00011100 $
1%
b00011100 (
b00011100 )
b0001 *
#260000000
0!
b0101 #
0%
b0101 '
#270000000
1!
b00011101 $
1%
b00011101 (
b00011101 )
b0101 *
#280000000
0!
b1111 #
0%
b1111 '
#290000000
1!
b00011111 $
1%
b00011111 (
b00011111 )
b1111 *
#300000000
0!
b0000 #
0%
b0000 '
#310000000
1!
b00100011 $
1%
b00100011 (
b00100011 )
b0000 *
#320000000
0!
b1011 #
0%
b1011 '
#330000000
1!
b00100110 $
1%
b00100110 (
b00100110 )
b1011 *
#340000000
0!
b1010 #
0%
b1010 '
#350000000
1!
b00100111 $
1%
b00100111 (
b00100111 )
b1010 *
#360000000
0!
b0001 #
0%
b0001 '
#370000000
1!
b00101010 $
1%
b00101010 (
b00101010 )
b0001 *
#380000000
0!
b0101 #
0%
b0101 '
#390000000
1!
b00101011 $
1%
b00101011 (
b00101011 )
b0101 *
#400000000
0!
b1111 #
0%
b1111 '
#410000000
1!
b00101101 $
1%
b00101101 (
b00101101 )
b1111 *
#420000000
0!
b0000 #
0%
b0000 '
#430000000
1!
b00110001 $
1%
b00110001 (
b00110001 )
b0000 *
#440000000
0!
b1011 #
0%
b1011 '
#450000000
1!
b00110100 $
1%
b00110100 (
b00110100 )
b1011 *
#460000000
0!
b1010 #
0%
b1010 '
#470000000
1!
b00110101 $
1%
b00110101 (
b00110101 )
b1010 *
#480000000
0!
b0001 #
0%
b0001 '
#490000000
1!
b00111000 $
1%
b00111000 (
b00111000 )
b0001 *
#500000000
0!
b0101 #
0%
b0101 '
#510000000
1!
b00111001 $
1%
b00111001 (
b00111001 )
b0101 *
#520000000
0!
b1111 #
0%
b1111 '
#530000000
1!
b00111011 $
1%
b00111011 (
b00111011 )
b1111 *
#540000000
0!
b0000 #
0%
b0000 '
#550000000
1!
b00111111 $
1%
b00111111 (
b00111111 )
b0000 *
#560000000
0!
b1011 #
0%
b1011 '
#570000000
1!
b01000010 $
1%
b01000010 (
b01000010 )
b1011 *
#580000000
0!
b1010 #
0%
b1010 '
#590000000
1!
b01000011 $
1%
b01000011 (
b01000011 )
b1010 *
#600000000
0!
b0001 #
0%
b0001 '
#610000000
1!
b01000110 $
1%
b01000110 (
b01000110 )
b0001 *
#620000000
0!
b0101 #
0%
b0101 '
#630000000
1!
b01000111 $
1%
b01000111 (
b01000111 )
b0101 *
#640000000
0!
b1111 #
0%
b1111 '
#650000000
1!
b01001001 $
1%
b01001001 (
b01001001 )
b1111 *
#660000000
0!
b0000 #
0%
b0000 '
#670000000
1!
b01001101 $
1%
b01001101 (
b01001101 )
b0000 *
#680000000
0!
b1011 #
0%
b1011 '
#690000000
1!
b01010000 $
1%
b01010000 (
b01010000 )
b1011 *
#700000000
0!
b1010 #
0%
b1010 '
#710000000
1!
b01010001 $
1%
b01010001 (
b01010001 )
b1010 *
#720000000
0!
b0001 #
0%
b0001 '
#730000000
1!
b01010100 $
1%
b01010100 (
b01010100 )
b0001 *
#740000000
0!
b0101 #
0%
b0101 '
#750000000
1!
b01010101 $
1%
b01010101 (
b01010101 )
b0101 *
#760000000
0!
b1111 #
0%
b1111 '
#770000000
1!
b01010111 $
1%
b01010111 (
b01010111 )
b1111 *
#780000000
0!
b0000 #
0%
b0000 '
#790000000
1!
b01011011 $
1%
b01011011 (
b01011011 )
b0000 *
#800000000
0!
b1011 #
0%
b1011 '
#810000000
1!
b01011110 $
1%
b01011110 (
b01011110 )
b1011 *
#820000000
0!
b1010 #
0%
b1010 '
#830000000
1!
b01011111 $
1%
b01011111 (
b01011111 )
b1010 *
#840000000
0!
b0001 #
0%
b0001 '
#850000000
1!
b01100010 $
1%
b01100010 (
b01100010 )
b0001 *
#860000000
0!
b0101 #
0%
b0101 '
#870000000
1!
b01100011 $
1%
b01100011 (
b01100011 )
b0101 *
#880000000
0!
b1111 #
0%
b1111 '
#890000000
1!
b01100101 $
1%
b01100101 (
b01100101 )
b1111 *
#900000000
0!
b0000 #
0%
b0000 '
#910000000
1!
b01101001 $
1%
b01101001 (
b01101001 )
b0000 *
#920000000
0!
b1011 #
0%
b1011 '
#930000000
1!
b01101100 $
1%
b01101100 (
b01101100 )
b1011 *
#940000000
0!
b1010 #
0%
b1010 '
#950000000
1!
b01101101 $
1%
b01101101 (
b01101101 )
b1010 *
#960000000
0!
b0001 #
0%
b0001 '
#970000000
1!
b01110000 $
1%
b01110000 (
b01110000 )
b0001 *
#980000000
0!
b0101 #
0%
b0101 '
#990000000
1!
b01110001 $
1%
b01110001 (
b01110001 )
b0101 *
#1000000000
0!
0"
b1111 #
0%
0&
b1111 '
#1010000000
1!
b00000000 $
1%
b00000000 (
b00000000 )
b1111 *
#1020000000
0!
1"
b0000 #
0%
1&
b0000 '
#1030000000
1!
b00000100 $
1%
b00000100 (
b00000100 )
b0000 *
#1040000000
0!
b1011 #
0%
b1011 '
#1050000000
1!
b00000111 $
1%
b00000111 (
b00000111 )
b1011 *
#1060000000
0!
b1010 #
0%
b1010 '
#1070000000
1!
b00001000 $
1%
b00001000 (
b00001000 )
b1010 *
#1080000000
0!
b0001 #
0%
b0001 '
#1090000000
1!
b00001011 $
1%
b00001011 (
b00001011 )
b0001 *
#1100000000
0!
b0101 #
0%
b0101 '
#1110000000
1!
b00001100 $
1%
b00001100 (
b00001100 )
b0101 *
#1120000000
0!
b1111 #
0%
b1111 '
#1130000000
1!
b00001110 $
1%
b00001110 (
b00001110 )
b1111 *
#1140000000
0!
b0000 #
0%
b0000 '
#1150000000
1!
b00010010 $
1%
b00010010 (
b00010010 )
b0000 *
#1160000000
0!
b1011 #
0%
b1011 '
#1170000000
1!
b00010101 $
1%
b00010101 (
b00010101 )
b1011 *
#1180000000
0!
b1010 #
0%
b1010 '
#1190000000
1!
b00010110 $
1%
b00010110 (
b00010110 )
b1010 *
#1200000000
0!
b0001 #
0%
b0001 '
#1210000000
1!
b00011001 $
1%
b00011001 (
b00011001 )
b0001 *
#1220000000
0!
b0101 #
0%
b0101 '
#1230000000
1!
b00011010 $
1%
b00011010 (
b00011010 )
b0101 *
#1240000000
0!
b1111 #
0%
b1111 '
#1250000000
1!
b00011100 $
1%
b00011100 (
b00011100 )
b1111 *
#1260000000
0!
b0000 #
0%
b0000 '
#1270000000
1!
b00100000 $
1%
b00100000 (
b00100000 )
b0000 *
#1280000000
0!
b1011 #
0%
b1011 '
#1290000000
1!
b00100011 $
1%
b00100011 (
b00100011 )
b1011 *
#1300000000
0!
b1010 #
0%
b1010 '
#1310000000
1!
b00100100 $
1%
b00100100 (
b00100100 )
b1010 *
#1320000000
0!
b0001 #
0%
b0001 '
#1330000000
1!
b00100111 $
1%
b00100111 (
b00100111 )
b0001 *
#1340000000
0!
b0101 #
0%
b0101 '
#1350000000
1!
b00101000 $
1%
b00101000 (
b00101000 )
b0101 *
#1360000000
0!
b1111 #
0%
b1111 '
#1370000000
1!
b00101010 $
1%
b00101010 (
b00101010 )
b1111 *
#1380000000
0!
b0000 #
0%
b0000 '
#1390000000
1!
b00101110 $
1%
b00101110 (
b00101110 )
b0000 *
#1400000000
0!
b1011 #
0%
b1011 '
#1410000000
1!
b00110001 $
1%
b00110001 (
b00110001 )
b1011 *
#1420000000
0!
b1010 #
0%
b1010 '
#1430000000
1!
b00110010 $
1%
b00110010 (
b00110010 )
b1010 *
#1440000000
0!
b0001 #
0%
b0001 '
#1450000000
1!
b00110101 $
1%
b00110101 (
b00110101 )
b0001 *
#1460000000
0!
b0101 #
0%
b0101 '
#1470000000
1!
b00110110 $
1%
b00110110 (
b00110110 )
b0101 *
#1480000000
0!
b1111 #
0%
b1111 '
#1490000000
1!
b00111000 $
1%
b00111000 (
b00111000 )
b1111 *
#1500000000
0!
b0000 #
0%
b0000 '
#1510000000
1!
b00111100 $
1%
b00111100 (
b00111100 )
b0000 *
#1520000000
0!
b1011 #
0%
b1011 '
#1530000000
1!
b00111111 $
1%
b00111111 (
b00111111 )
b1011 *
#1540000000
0!
b1010 #
0%
b1010 '
#1550000000
1!
b01000000 $
1%
b01000000 (
b01000000 )
b1010 *
#1560000000
0!
b0001 #
0%
b0001 '
#1570000000
1!
b01000011 $
1%
b01000011 (
b01000011 )
b0001 *
#1580000000
0!
b0101 #
0%
b0101 '
#1590000000
1!
b01000100 $
1%
b01000100 (
b01000100 )
b0101 *
#1600000000
0!
b1111 #
0%
b1111 '
#1610000000
1!
b01000110 $
1%
b01000110 (
b01000110 )
b1111 *
#1620000000
0!
b0000 #
0%
b0000 '
#1630000000
1!
b01001010 $
1%
b01001010 (
b01001010 )
b0000 *
#1640000000
0!
b1011 #
0%
b1011 '
#1650000000
1!
b01001101 $
1%
b01001101 (
b01001101 )
b1011 *
#1660000000
0!
b1010 #
0%
b1010 '
#1670000000
1!
b01001110 $
1%
b01001110 (
b01001110 )
b1010 *
#1680000000
0!
b0001 #
0%
b0001 '
#1690000000
1!
b01010001 $
1%
b01010001 (
b01010001 )
b0001 *
#1700000000
0!
b0101 #
0%
b0101 '
#1710000000
1!
b01010010 $
1%
b01010010 (
b01010010 )
b0101 *
#1720000000
0!
b1111 #
0%
b1111 '
#1730000000
1!
b01010100 $
1%
b01010100 (
b01010100 )
b1111 *
#1740000000
0!
b0000 #
0%
b0000 '
#1750000000
1!
b01011000 $
1%
b01011000 (
b01011000 )
b0000 *
#1760000000
0!
b1011 #
0%
b1011 '
#1770000000
1!
b01011011 $
1%
b01011011 (
b01011011 )
b1011 *
#1780000000
0!
b1010 #
0%
b1010 '
#1790000000
1!
b01011100 $
1%
b01011100 (
b01011100 )
b1010 *
#1800000000
0!
b0001 #
0%
b0001 '
#1810000000
1!
b01011111 $
1%
b01011111 (
b01011111 )
b0001 *
#1820000000
0!
b0101 #
0%
b0101 '
#1830000000
1!
b01100000 $
1%
b01100000 (
b01100000 )
b0101 *
#1840000000
0!
b1111 #
0%
b1111 '
#1850000000
1!
b01100010 $
1%
b01100010 (
b01100010 )
b1111 *
#1860000000
0!
b0000 #
0%
b0000 '
#1870000000
1!
b01100110 $
1%
b01100110 (
b01100110 )
b0000 *
#1880000000
0!
b1011 #
0%
b1011 '
#1890000000
1!
b01101001 $
1%
b01101001 (
b01101001 )
b1011 *
#1900000000
0!
b1010 #
0%
b1010 '
#1910000000
1!
b01101010 $
1%
b01101010 (
b01101010 )
b1010 *
#1920000000
0!
b0001 #
0%
b0001 '
#1930000000
1!
b01101101 $
1%
b01101101 (
b01101101 )
b0001 *
#1940000000
0!
b0101 #
0%
b0101 '
#1950000000
1!
b01101110 $
1%
b01101110 (
b01101110 )
b0101 *
#1960000000
0!
b1111 #
0%
b1111 '
#1970000000
1!
b01110000 $
1%
b01110000 (
b01110000 )
b1111 *
#1980000000
0!
b0000 #
0%
b0000 '
#1990000000
1!
b01110100 $
1%
b01110100 (
b01110100 )
b0000 *
#2000000000
0!
0"
b1011 #
0%
0&
b1011 '
#2010000000
1!
b00000000 $
1%
b00000000 (
b00000000 )
b1011 *
#2020000000
0!
1"
b1010 #
0%
1&
b1010 '
#2030000000
1!
b00000001 $
1%
b00000001 (
b00000001 )
b1010 *
#2040000000
0!
b0001 #
0%
b0001 '
#2050000000
1!
b00000100 $
1%
b00000100 (
b00000100 )
b0001 *
#2060000000
0!
b0101 #
0%
b0101 '
#2070000000
1!
b00000101 $
1%
b00000101 (
b00000101 )
b0101 *
#2080000000
0!
b1111 #
0%
b1111 '
#2090000000
1!
b00000111 $
1%
b00000111 (
b00000111 )
b1111 *
#2100000000
0!
b0000 #
0%
b0000 '
#2110000000
1!
b00001011 $
1%
b00001011 (
b00001011 )
b0000 *
#2120000000
0!
b1011 #
0%
b1011 '
#2130000000
1!
b00001110 $
1%
b00001110 (
b00001110 )
b1011 *
#2140000000
0!
b1010 #
0%
b1010 '
#2150000000
1!
b00001111 $
1%
b00001111 (
b00001111 )
b1010 *
#2160000000
0!
b0001 #
0%
b0001 '
#2170000000
1!
b00010010 $
1%
b00010010 (
b00010010 )
b0001 *
#2180000000
0!
b0101 #
0%
b0101 '
#2190000000
1!
b00010011 $
1%
b00010011 (
b00010011 )
b0101 *
#2200000000
0!
b1111 #
0%
b1111 '
#2210000000
1!
b00010101 $
1%
b00010101 (
b00010101 )
b1111 *
#2220000000
0!
b0000 #
0%
b0000 '
#2230000000
1!
b00011001 $
1%
b00011001 (
b00011001 )
b0000 *
#2240000000
0!
b1011 #
0%
b1011 '
#2250000000
1!
b00011100 $
1%
b00011100 (
b00011100 )
b1011 *
#2260000000
0!
b1010 #
0%
b1010 '
#2270000000
1!
b00011101 $
1%
b00011101 (
b00011101 )
b1010 *
#2280000000
0!
b0001 #
0%
b0001 '
#2290000000
1!
b00100000 $
1%
b00100000 (
b00100000 )
b0001 *
#2300000000
0!
b0101 #
0%
b0101 '
#2310000000
1!
b00100001 $
1%
b00100001 (
b00100001 )
b0101 *
#2320000000
0!
b1111 #
0%
b1111 '
#2330000000
1!
b00100011 $
1%
b00100011 (
b00100011 )
b1111 *
#2340000000
0!
b0000 #
0%
b0000 '
#2350000000
1!
b00100111 $
1%
b00100111 (
b00100111 )
b0000 *
#2360000000
0!
b1011 #
0%
b1011 '
#2370000000
1!
b00101010 $
1%
b00101010 (
b00101010 )
b1011 *
#2380000000
0!
b1010 #
0%
b1010 '
#2390000000
1!
b00101011 $
1%
b00101011 (
b00101011 )
b1010 *
#2400000000
0!
b0001 #
0%
b0001 '
#2410000000
1!
b00101110 $
1%
b00101110 (
b00101110 )
b0001 *
#2420000000
0!
b0101 #
0%
b0101 '
#2430000000
1!
b00101111 $
1%
b00101111 (
b00101111 )
b0101 *
#2440000000
0!
b1111 #
0%
b1111 '
#2450000000
1!
b00110001 $
1%
b00110001 (
b00110001 )
b1111 *
#2460000000
0!
b0000 #
0%
b0000 '
#2470000000
1!
b00110101 $
1%
b00110101 (
b00110101 )
b0000 *
#2480000000
0!
b1011 #
0%
b1011 '
#2490000000
1!
b00111000 $
1%
b00111000 (
b00111000 )
b1011 *
#2500000000
0!
b1010 #
0%
b1010 '
#2510000000
1!
b00111001 $
1%
b00111001 (
b00111001 )
b1010 *
#2520000000
0!
b0001 #
0%
b0001 '
#2530000000
1!
b00111100 $
1%
b00111100 (
b00111100 )
b0001 *
#2540000000
0!
b0101 #
0%
b0101 '
#2550000000
1!
b00111101 $
1%
b00111101 (
b00111101 )
b0101 *
#2560000000
0!
b1111 #
0%
b1111 '
#2570000000
1!
b00111111 $
1%
b00111111 (
b00111111 )
b1111 *
#2580000000
0!
b0000 #
0%
b0000 '
#2590000000
1!
b01000011 $
1%
b01000011 (
b01000011 )
b0000 *
#2600000000
0!
b1011 #
0%
b1011 '
#2610000000
1!
b01000110 $
1%
b01000110 (
b01000110 )
b1011 *
#2620000000
0!
b1010 #
0%
b1010 '
#2630000000
1!
b01000111 $
1%
b01000111 (
b01000111 )
b1010 *
#2640000000
0!
b0001 #
0%
b0001 '
#2650000000
1!
b01001010 $
1%
b01001010 (
b01001010 )
b0001 *
#2660000000
0!
b0101 #
0%
b0101 '
#2670000000
1!
b01001011 $
1%
b01001011 (
b01001011 )
b0101 *
#2680000000
0!
b1111 #
0%
b1111 '
#2690000000
1!
b01001101 $
1%
b01001101 (
b01001101 )
b1111 *
#2700000000
0!
b0000 #
0%
b0000 '
#2710000000
1!
b01010001 $
1%
b01010001 (
b01010001 )
b0000 *
#2720000000
0!
b1011 #
0%
b1011 '
#2730000000
1!
b01010100 $
1%
b01010100 (
b01010100 )
b1011 *
#2740000000
0!
b1010 #
0%
b1010 '
#2750000000
1!
b01010101 $
1%
b01010101 (
b01010101 )
b1010 *
#2760000000
0!
b0001 #
0%
b0001 '
#2770000000
1!
b01011000 $
1%
b01011000 (
b01011000 )
b0001 *
#2780000000
0!
b0101 #
0%
b0101 '
#2790000000
1!
b01011001 $
1%
b01011001 (
b01011001 )
b0101 *
#2800000000
0!
b1111 #
0%
b1111 '
#2810000000
1!
b01011011 $
1%
b01011011 (
b01011011 )
b1111 *
#2820000000
0!
b0000 #
0%
b0000 '
#2830000000
1!
b01011111 $
1%
b01011111 (
b01011111 )
b0000 *
#2840000000
0!
b1011 #
0%
b1011 '
#2850000000
1!
b01100010 $
1%
b01100010 (
b01100010 )
b1011 *
#2860000000
0!
b1010 #
0%
b1010 '
#2870000000
1!
b01100011 $
1%
b01100011 (
b01100011 )
b1010 *
#2880000000
0!
b0001 #
0%
b0001 '
#2890000000
1!
b01100110 $
1%
b01100110 (
b01100110 )
b0001 *
#2900000000
0!
b0101 #
0%
b0101 '
#2910000000
1!
b01100111 $
1%
b01100111 (
b01100111 )
b0101 *
#2920000000
0!
b1111 #
0%
b1111 '
#2930000000
1!
b01101001 $
1%
b01101001 (
b01101001 )
b1111 *
#2940000000
0!
b0000 #
0%
b0000 '
#2950000000
1!
b01101101 $
1%
b01101101 (
b01101101 )
b0000 *
#2960000000
0!
b1011 #
0%
b1011 '
#2970000000
1!
b01110000 $
1%
b01110000 (
b01110000 )
b1011 *
#2980000000
0!
b1010 #
0%
b1010 '
#2990000000
1!
b01110001 $
1%
b01110001 (
b01110001 )
b1010 *
#3000000000
0!
0"
b0001 #
0%
0&
b0001 '
#3010000000
1!
b00000000 $
1%
b00000000 (
b00000000 )
b0001 *
#3020000000
0!
1"
b0101 #
0%
1&
b0101 '
#3030000000
1!
b00000001 $
1%
b00000001 (
b00000001 )
b0101 *
#3040000000
0!
b1111 #
0%
b1111 '
#3050000000
1!
b00000011 $
1%
b00000011 (
b00000011 )
b1111 *
#3060000000
0!
b0000 #
0%
b0000 '
#3070000000
1!
b00000111 $
1%
b00000111 (
b00000111 )
b0000 *
#3080000000
0!
b1011 #
0%
b1011 '
#3090000000
1!
b00001010 $
1%
b00001010 (
b00001010 )
b1011 *
#3100000000
0!
b1010 #
0%
b1010 '
#3110000000
1!
b00001011 $
1%
b00001011 (
b00001011 )
b1010 *
#3120000000
0!
b0001 #
0%
b0001 '
#3130000000
1!
b00001110 $
1%
b00001110 (
b00001110 )
b0001 *
#3140000000
0!
b0101 #
0%
b0101 '
#3150000000
1!
b00001111 $
1%
b00001111 (
b00001111 )
b0101 *
#3160000000
0!
b1111 #
0%
b1111 '
#3170000000
1!
b00010001 $
1%
b00010001 (
b00010001 )
b1111 *
#3180000000
0!
b0000 #
0%
b0000 '
#3190000000
1!
b00010101 $
1%
b00010101 (
b00010101 )
b0000 *
#3200000000
0!
b1011 #
0%
b1011 '
#3210000000
1!
b00011000 $
1%
b00011000 (
b00011000 )
b1011 *
#3220000000
0!
b1010 #
0%
b1010 '
#3230000000
1!
b00011001 $
1%
b00011001 (
b00011001 )
b1010 *
#3240000000
0!
b0001 #
0%
b0001 '
#3250000000
1!
b00011100 $
1%
b00011100 (
b00011100 )
b0001 *
#3260000000
0!
b0101 #
0%
b0101 '
#3270000000
1!
b00011101 $
1%
b00011101 (
b00011101 )
b0101 *
#3280000000
0!
b1111 #
0%
b1111 '
#3290000000
1!
b00011111 $
1%
b00011111 (
b00011111 )
b1111 *
#3300000000
0!
b0000 #
0%
b0000 '
#3310000000
1!
b00100011 $
1%
b00100011 (
b00100011 )
b0000 *
#3320000000
0!
b1011 #
0%
b1011 '
#3330000000
1!
b00100110 $
1%
b00100110 (
b00100110 )
b1011 *
#3340000000
0!
b1010 #
0%
b1010 '
#3350000000
1!
b00100111 $
1%
b00100111 (
b00100111 )
b1010 *
#3360000000
0!
b0001 #
0%
b0001 '
#3370000000
1!
b00101010 $
1%
b00101010 (
b00101010 )
b0001 *
#3380000000
0!
b0101 #
0%
b0101 '
#3390000000
1!
b00101011 $
1%
b00101011 (
b00101011 )
b0101 *
#3400000000
0!
b1111 #
0%
b1111 '
#3410000000
1!
b00101101 $
1%
b00101101 (
b00101101 )
b1111 *
#3420000000
0!
b0000 #
0%
b0000 '
#3430000000
1!
b00110001 $
1%
b00110001 (
b00110001 )
b0000 *
#3440000000
0!
b1011 #
0%
b1011 '
#3450000000
1!
b00110100 $
1%
b00110100 (
b00110100 )
b1011 *
#3460000000
0!
b1010 #
0%
b1010 '
#3470000000
1!
b00110101 $
1%
b00110101 (
b00110101 )
b1010 *
#3480000000
0!
b0001 #
0%
b0001 '
#3490000000
1!
b00111000 $
1%
b00111000 (
b00111000 )
b0001 *
#3500000000
0!
b0101 #
0%
b0101 '
#3510000000
1!
b00111001 $
1%
b00111001 (
b00111001 )
b0101 *
#3520000000
0!
b1111 #
0%
b1111 '
#3530000000
1!
b00111011 $
1%
b00111011 (
b00111011 )
b1111 *
#3540000000
0!
b0000 #
0%
b0000 '
#3550000000
1!
b00111111 $
1%
b00111111 (
b00111111 )
b0000 *
#3560000000
0!
b1011 #
0%
b1011 '
#3570000000
1!
b01000010 $
1%
b01000010 (
b01000010 )
b1011 *
#3580000000
0!
b1010 #
0%
b1010 '
#3590000000
1!
b01000011 $
1%
b01000011 (
b01000011 )
b1010 *
#3600000000
0!
b0001 #
0%
b0001 '
#3610000000
1!
b01000110 $
1%
b01000110 (
b01000110 )
b0001 *
#3620000000
0!
b0101 #
0%
b0101 '
#3630000000
1!
b01000111 $
1%
b01000111 (
b01000111 )
b0101 *
#3640000000
0!
b1111 #
0%
b1111 '
#3650000000
1!
b01001001 $
1%
b01001001 (
b01001001 )
b1111 *
#3660000000
0!
b0000 #
0%
b0000 '
#3670000000
1!
b01001101 $
1%
b01001101 (
b01001101 )
b0000 *
#3680000000
0!
b1011 #
0%
b1011 '
#3690000000
1!
b01010000 $
1%
b01010000 (
b01010000 )
b1011 *
#3700000000
0!
b1010 #
0%
b1010 '
#3710000000
1!
b01010001 $
1%
b01010001 (
b01010001 )
b1010 *
#3720000000
0!
b0001 #
0%
b0001 '
#3730000000
1!
b01010100 $
1%
b01010100 (
b01010100 )
b0001 *
#3740000000
0!
b0101 #
0%
b0101 '
#3750000000
1!
b01010101 $
1%
b01010101 (
b01010101 )
b0101 *
#3760000000
0!
b1111 #
0%
b1111 '
#3770000000
1!
b01010111 $
1%
b01010111 (
b01010111 )
b1111 *
#3780000000
0!
b0000 #
0%
b0000 '
#3790000000
1!
b01011011 $
1%
b01011011 (
b01011011 )
b0000 *
#3800000000
0!
b1011 #
0%
b1011 '
#3810000000
1!
b01011110 $
1%
b01011110 (
b01011110 )
b1011 *
#3820000000
0!
b1010 #
0%
b1010 '
#3830000000
1!
b01011111 $
1%
b01011111 (
b01011111 )
b1010 *
#3840000000
0!
b0001 #
0%
b0001 '
#3850000000
1!
b01100010 $
1%
b01100010 (
b01100010 )
b0001 *
#3860000000
0!
b0101 #
0%
b0101 '
#3870000000
1!
b01100011 $
1%
b01100011 (
b01100011 )
b0101 *
#3880000000
0!
b1111 #
0%
b1111 '
#3890000000
1!
b01100101 $
1%
b01100101 (
b01100101 )
b1111 *
#3900000000
0!
b0000 #
0%
b0000 '
#3910000000
1!
b01101001 $
1%
b01101001 (
b01101001 )
b0000 *
#3920000000
0!
b1011 #
0%
b1011 '
#3930000000
1!
b01101100 $
1%
b01101100 (
b01101100 )
b1011 *
#3940000000
0!
b1010 #
0%
b1010 '
#3950000000
1!
b01101101 $
1%
b01101101 (
b01101101 )
b1010 *
#3960000000
0!
b0001 #
0%
b0001 '
#3970000000
1!
b01110000 $
1%
b01110000 (
b01110000 )
b0001 *
#3980000000
0!
b0101 #
0%
b0101 '
#3990000000
1!
b01110001 $
1%
b01110001 (
b01110001 )
b0101 *
#4000000000
0!
0"
b1111 #
0%
0&
b1111 '
#4010000000
1!
b00000000 $
1%
b00000000 (
b00000000 )
b1111 *
#4020000000
0!
1"
b0000 #
0%
1&
b0000 '
#4030000000
1!
b00000100 $
1%
b00000100 (
b00000100 )
b0000 *
#4040000000
0!
b1011 #
0%
b1011 '
#4050000000
1!
b00000111 $
1%
b00000111 (
b00000111 )
b1011 *
#4060000000
0!
b1010 #
0%
b1010 '
#4070000000
1!
b00001000 $
1%
b00001000 (
b00001000 )
b1010 *
#4080000000
0!
b0001 #
0%
b0001 '
#4090000000
1!
b00001011 $
1%
b00001011 (
b00001011 )
b0001 *
#4100000000
0!
b0101 #
0%
b0101 '
#4110000000
1!
b00001100 $
1%
b00001100 (
b00001100 )
b0101 *
#4120000000
0!
b1111 #
0%
b1111 '
#4130000000
1!
b00001110 $
1%
b00001110 (
b00001110 )
b1111 *
#4140000000
0!
b0000 #
0%
b0000 '
#4150000000
1!
b00010010 $
1%
b00010010 (
b00010010 )
b0000 *
#4160000000
0!
b1011 #
0%
b1011 '
#4170000000
1!
b00010101 $
1%
b00010101 (
b00010101 )
b1011 *
#4180000000
0!
b1010 #
0%
b1010 '
#4190000000
1!
b00010110 $
1%
b00010110 (
b00010110 )
b1010 *
#4200000000
0!
b0001 #
0%
b0001 '
#4210000000
1!
b00011001 $
1%
b00011001 (
b00011001 )
b0001 *
#4220000000
0!
b0101 #
0%
b0101 '
#4230000000
1!
b00011010 $
1%
b00011010 (
b00011010 )
b0101 *
#4240000000
0!
b1111 #
0%
b1111 '
#4250000000
1!
b00011100 $
1%
b00011100 (
b00011100 )
b1111 *
#4260000000
0!
b0000 #
0%
b0000 '
#4270000000
1!
b00100000 $
1%
b00100000 (
b00100000 )
b0000 *
#4280000000
0!
b1011 #
0%
b1011 '
#4290000000
1!
b00100011 $
1%
b00100011 (
b00100011 )
b1011 *
#4300000000
0!
b1010 #
0%
b1010 '
#4310000000
1!
b00100100 $
1%
b00100100 (
b00100100 )
b1010 *
#4320000000
0!
b0001 #
0%
b0001 '
#4330000000
1!
b00100111 $
1%
b00100111 (
b00100111 )
b0001 *
#4340000000
0!
b0101 #
0%
b0101 '
#4350000000
1!
b00101000 $
1%
b00101000 (
b00101000 )
b0101 *
#4360000000
0!
b1111 #
0%
b1111 '
#4370000000
1!
b00101010 $
1%
b00101010 (
b00101010 )
b1111 *
#4380000000
0!
b0000 #
0%
b0000 '
#4390000000
1!
b00101110 $
1%
b00101110 (
b00101110 )
b0000 *
#4400000000
0!
b1011 #
0%
b1011 '
#4410000000
1!
b00110001 $
1%
b00110001 (
b00110001 )
b1011 *
#4420000000
0!
b1010 #
0%
b1010 '
#4430000000
1!
b00110010 $
1%
b00110010 (
b00110010 )
b1010 *
#4440000000
0!
b0001 #
0%
b0001 '
#4450000000
1!
b00110101 $
1%
b00110101 (
b00110101 )
b0001 *
#4460000000
0!
b0101 #
0%
b0101 '
#4470000000
1!
b00110110 $
1%
b00110110 (
b00110110 )
b0101 *
#4480000000
0!
b1111 #
0%
b1111 '
#4490000000
1!
b00111000 $
1%
b00111000 (
b00111000 )
b1111 *
#4500000000
0!
b0000 #
0%
b0000 '
#4510000000
1!
b00111100 $
1%
b00111100 (
b00111100 )
b0000 *
#4520000000
0!
b1011 #
0%
b1011 '
#4530000000
1!
b00111111 $
1%
b00111111 (
b00111111 )
b1011 *
#4540000000
0!
b1010 #
0%
b1010 '
#4550000000
1!
b01000000 $
1%
b01000000 (
b01000000 )
b1010 *
#4560000000
0!
b0001 #
0%
b0001 '
#4570000000
1!
b01000011 $
1%
b01000011 (
b01000011 )
b0001 *
#4580000000
0!
b0101 #
0%
b0101 '
#4590000000
1!
b01000100 $
1%
b01000100 (
b01000100 )
b0101 *
#4600000000
0!
b1111 #
0%
b1111 '
#4610000000
1!
b01000110 $
1%
b01000110 (
b01000110 )
b1111 *
#4620000000
0!
b0000 #
0%
b0000 '
#4630000000
1!
b01001010 $
1%
b01001010 (
b01001010 )
b0000 *
#4640000000
0!
b1011 #
0%
b1011 '
#4650000000
1!
b01001101 $
1%
b01001101 (
b01001101 )
b1011 *
#4660000000
0!
b1010 #
0%
b1010 '
