sim/ghdl/tb_ac.vcd
$date
  Mon Nov 23 17:04:40 2020
$end
$version
  GHDL v0
$end
$timescale
  1 fs
$end
$var reg 1 ! s_clk $end
$var reg 1 " s_reset_n $end
$var reg 1 # s_inp $end
$var reg 8 $ s_result[7:0] $end
$scope module uut $end
$var reg 1 % clk $end
$var reg 1 & reset_n $end
$var reg 1 ' inp $end
$var reg 8 ( result[7:0] $end
$var reg 8 ) s_cnt[7:0] $end
$var reg 1 * s_inp $end
$upscope $end
$enddefinitions $end
#0
0!
0"
0#
bUUUUUUUU $
0%
0&
0'
bUUUUUUUU (
bUUUUUUUU )
U*
#10000000
1!
b00000000 $
1%
b00000000 (
b00000000 )
0*
#20000000
0!
1"
1#
0%
1&
1'
#30000000
1!
b00000001 $
1%
b00000001 (
b00000001 )
1*
#40000000
0!
0#
0%
0'
#50000000
1!
b00000010 $
1%
b00000010 (
b00000010 )
0*
#60000000
0!
0%
#70000000
1!
1%
#80000000
0!
1#
0%
1'
#90000000
1!
b00000011 $
1%
b00000011 (
b00000011 )
1*
#100000000
0!
0#
0%
0'
#110000000
1!
b00000100 $
1%
b00000100 (
b00000100 )
0*
#120000000
0!
0%
#130000000
1!
1%
#140000000
0!
1#
0%
1'
#150000000
1!
b00000101 $
1%
b00000101 (
b00000101 )
1*
#160000000
0!
0#
0%
0'
#170000000
1!
b00000110 $
1%
b00000110 (
b00000110 )
0*
#180000000
0!
0%
#190000000
1!
1%
#200000000
0!
1#
0%
1'
#210000000
1!
b00000111 $
1%
b00000111 (
b00000111 )
1*
#220000000
0!
0#
0%
0'
#230000000
1!
b00001000 $
1%
b00001000 (
b00001000 )
0*
#240000000
0!
0%
#250000000
1!
1%
#260000000
0!
1#
0%
1'
#270000000
1!
b00001001 $
1%
b00001001 (
b00001001 )
1*
#280000000
0!
0#
0%
0'
#290000000
1!
b00001010 $
1%
b00001010 (
b00001010 )
0*
#300000000
0!
0%
#310000000
1!
1%
#320000000
0!
1#
0%
1'
#330000000
1!
b00001011 $
1%
b00001011 (
b00001011 )
1*
#340000000
0!
0#
0%
0'
#350000000
1!
b00001100 $
1%
b00001100 (
b00001100 )
0*
#360000000
0!
0%
#370000000
1!
1%
#380000000
0!
1#
0%
1'
#390000000
1!
b00001101 $
1%
b00001101 (
b00001101 )
1*
#400000000
0!
0#
0%
0'
#410000000
1!
b00001110 $
1%
b00001110 (
b00001110 )
0*
#420000000
0!
0%
#430000000
1!
1%
#440000000
0!
1#
0%
1'
#450000000
1!
b00001111 $
1%
b00001111 (
b00001111 )
1*
#460000000
0!
0#
0%
0'
#470000000
1!
b00010000 $
1%
b00010000 (
b00010000 )
0*
#480000000
0!
0%
#490000000
1!
1%
#500000000
0!
1#
0%
1'
#510000000
1!
b00010001 $
1%
b00010001 (
b00010001 )
1*
#520000000
0!
0#
0%
0'
#530000000
1!
b00010010 $
1%
b00010010 (
b00010010 )
0*
#540000000
0!
0%
#550000000
1!
1%
#560000000
0!
1#
0%
1'
#570000000
1!
b00010011 $
1%
b00010011 (
b00010011 )
1*
#580000000
0!
0#
0%
0'
#590000000
1!
b00010100 $
1%
b00010100 (
b00010100 )
0*
#600000000
0!
0%
#610000000
1!
1%
#620000000
0!
1#
0%
1'
#630000000
1!
b00010101 $
1%
b00010101 (
b00010101 )
1*
#640000000
0!
0#
0%
0'
#650000000
1!
b00010110 $
1%
b00010110 (
b00010110 )
0*
#660000000
0!
0%
#670000000
1!
1%
#680000000
0!
1#
0%
1'
#690000000
1!
b00010111 $
1%
b00010111 (
b00010111 )
1*
#700000000
0!
0#
0%
0'
#710000000
1!
b00011000 $
1%
b00011000 (
b00011000 )
0*
#720000000
0!
0%
#730000000
1!
1%
#740000000
0!
1#
0%
1'
#750000000
1!
b00011001 $
1%
b00011001 (
b00011001 )
1*
#760000000
0!
0#
0%
0'
#770000000
1!
b00011010 $
1%
b00011010 (
b00011010 )
0*
#780000000
0!
0%
#790000000
1!
1%
#800000000
0!
1#
0%
1'
#810000000
1!
b00011011 $
1%
b00011011 (
b00011011 )
1*
#820000000
0!
0#
0%
0'
#830000000
1!
b00011100 $
1%
b00011100 (
b00011100 )
0*
#840000000
0!
0%
#850000000
1!
1%
#860000000
0!
1#
0%
1'
#870000000
1!
b00011101 $
1%
b00011101 (
b00011101 )
1*
#880000000
0!
0#
0%
0'
#890000000
1!
b00011110 $
1%
b00011110 (
b00011110 )
0*
#900000000
0!
0%
#910000000
1!
1%
#920000000
0!
1#
0%
1'
#930000000
1!
b00011111 $
1%
b00011111 (
b00011111 )
1*
#940000000
0!
0#
0%
0'
#950000000
1!
b00100000 $
1%
b00100000 (
b00100000 )
0*
#960000000
0!
0%
#970000000
1!
1%
#980000000
0!
1#
0%
1'
#990000000
1!
b00100001 $
1%
b00100001 (
b00100001 )
1*
#1000000000
0!
0"
0#
0%
0&
0'
#1010000000
1!
b00000000 $
1%
b00000000 (
b00000000 )
0*
#1020000000
0!
1"
0%
1&
#1030000000
1!
1%
#1040000000
0!
1#
0%
1'
#1050000000
1!
b00000001 $
1%
b00000001 (
b00000001 )
1*
#1060000000
0!
0#
0%
0'
#1070000000
1!
b00000010 $
1%
b00000010 (
b00000010 )
0*
#1080000000
0!
0%
#1090000000
1!
1%
#1100000000
0!
1#
0%
1'
#1110000000
1!
b00000011 $
1%
b00000011 (
b00000011 )
1*
#1120000000
0!
0#
0%
0'
#1130000000
1!
b00000100 $
1%
b00000100 (
b00000100 )
0*
#1140000000
0!
0%
#1150000000
1!
1%
#1160000000
0!
1#
0%
1'
#1170000000
1!
b00000101 $
1%
b00000101 (
b00000101 )
1*
#1180000000
0!
0#
0%
0'
#1190000000
1!
b00000110 $
1%
b00000110 (
b00000110 )
0*
#1200000000
0!
0%
#1210000000
1!
1%
#1220000000
0!
1#
0%
1'
#1230000000
1!
b00000111 $
1%
b00000111 (
b00000111 )
1*
#1240000000
0!
0#
0%
0'
#1250000000
1!
b00001000 $
1%
b00001000 (
b00001000 )
0*
#1260000000
0!
0%
#1270000000
1!
1%
#1280000000
0!
1#
0%
1'
#1290000000
1!
b00001001 $
1%
b00001001 (
b00001001 )
1*
#1300000000
0!
0#
0%
0'
#1310000000
1!
b00001010 $
1%
b00001010 (
b00001010 )
0*
#1320000000
0!
0%
#1330000000
1!
1%
#1340000000
0!
1#
0%
1'
#1350000000
1!
b00001011 $
1%
b00001011 (
b00001011 )
1*
#1360000000
0!
0#
0%
0'
#1370000000
1!
b00001100 $
1%
b00001100 (
b00001100 )
0*
#1380000000
0!
0%
#1390000000
1!
1%
#1400000000
0!
1#
0%
1'
#1410000000
1!
b00001101 $
1%
b00001101 (
b00001101 )
1*
#1420000000
0!
0#
0%
0'
#1430000000
1!
b00001110 $
1%
b00001110 (
b00001110 )
0*
#1440000000
0!
0%
#1450000000
1!
1%
#1460000000
0!
1#
0%
1'
#1470000000
1!
b00001111 $
1%
b00001111 (
b00001111 )
1*
#1480000000
0!
0#
0%
0'
#1490000000
1!
b00010000 $
1%
b00010000 (
b00010000 )
0*
#1500000000
0!
0%
#1510000000
1!
1%
#1520000000
0!
1#
0%
1'
#1530000000
1!
b00010001 $
1%
b00010001 (
b00010001 )
1*
#1540000000
0!
0#
0%
0'
#1550000000
1!
b00010010 $
1%
b00010010 (
b00010010 )
0*
#1560000000
0!
0%
#1570000000
1!
1%
#1580000000
0!
1#
0%
1'
#1590000000
1!
b00010011 $
1%
b00010011 (
b00010011 )
1*
#1600000000
0!
0#
0%
0'
#1610000000
1!
b00010100 $
1%
b00010100 (
b00010100 )
0*
#1620000000
0!
0%
#1630000000
1!
1%
#1640000000
0!
1#
0%
1'
#1650000000
1!
b00010101 $
1%
b00010101 (
b00010101 )
1*
#1660000000
0!
0#
0%
0'
#1670000000
1!
b00010110 $
1%
b00010110 (
b00010110 )
0*
#1680000000
0!
0%
#1690000000
1!
1%
#1700000000
0!
1#
0%
1'
#1710000000
1!
b00010111 $
1%
b00010111 (
b00010111 )
1*
#1720000000
0!
0#
0%
0'
#1730000000
1!
b00011000 $
1%
b00011000 (
b00011000 )
0*
#1740000000
0!
0%
#1750000000
1!
1%
#1760000000
0!
1#
0%
1'
#1770000000
1!
b00011001 $
1%
b00011001 (
b00011001 )
1*
#1780000000
0!
0#
0%
0'
#1790000000
1!
b00011010 $
1%
b00011010 (
b00011010 )
0*
#1800000000
0!
0%
#1810000000
1!
1%
#1820000000
0!
1#
0%
1'
#1830000000
1!
b00011011 $
1%
b00011011 (
b00011011 )
1*
#1840000000
0!
0#
0%
0'
#1850000000
1!
b00011100 $
1%
b00011100 (
b00011100 )
0*
#1860000000
0!
0%
#1870000000
1!
1%
#1880000000
0!
1#
0%
1'
#1890000000
1!
b00011101 $
1%
b00011101 (
b00011101 )
1*
#1900000000
0!
0#
0%
0'
#1910000000
1!
b00011110 $
1%
b00011110 (
b00011110 )
0*
#1920000000
0!
0%
#1930000000
1!
1%
#1940000000
0!
1#
0%
1'
#1950000000
1!
b00011111 $
1%
b00011111 (
b00011111 )
1*
#1960000000
0!
0#
0%
0'
#1970000000
1!
b00100000 $
1%
b00100000 (
b00100000 )
0*
#1980000000
0!
0%
#1990000000
1!
1%
#2000000000
0!
0"
1#
0%
0&
1'
#2010000000
1!
b00000000 $
1%
b00000000 (
b00000000 )
1*
#2020000000
0!
1"
0#
0%
1&
0'
#2030000000
1!
b00000001 $
1%
b00000001 (
b00000001 )
0*
#2040000000
0!
0%
#2050000000
1!
1%
#2060000000
0!
1#
0%
1'
#2070000000
1!
b00000010 $
1%
b00000010 (
b00000010 )
1*
#2080000000
0!
0#
0%
0'
#2090000000
1!
b00000011 $
1%
b00000011 (
b00000011 )
0*
#2100000000
0!
0%
#2110000000
1!
1%
#2120000000
0!
1#
0%
1'
#2130000000
1!
b00000100 $
1%
b00000100 (
b00000100 )
1*
#2140000000
0!
0#
0%
0'
#2150000000
1!
b00000101 $
1%
b00000101 (
b00000101 )
0*
#2160000000
0!
0%
#2170000000
1!
1%
#2180000000
0!
1#
0%
1'
#2190000000
1!
b00000110 $
1%
b00000110 (
b00000110 )
1*
#2200000000
0!
0#
0%
0'
#2210000000
1!
b00000111 $
1%
b00000111 (
b00000111 )
0*
#2220000000
0!
0%
#2230000000
1!
1%
#2240000000
0!
1#
0%
1'
#2250000000
1!
b00001000 $
1%
b00001000 (
b00001000 )
1*
#2260000000
0!
0#
0%
0'
#2270000000
1!
b00001001 $
1%
b00001001 (
b00001001 )
0*
#2280000000
0!
0%
#2290000000
1!
1%
#2300000000
0!
1#
0%
1'
#2310000000
1!
b00001010 $
1%
b00001010 (
b00001010 )
1*
#2320000000
0!
0#
0%
0'
#2330000000
1!
b00001011 $
1%
b00001011 (
b00001011 )
0*
#2340000000
0!
0%
#2350000000
1!
1%
#2360000000
0!
1#
0%
1'
#2370000000
1!
b00001100 $
1%
b00001100 (
b00001100 )
1*
#2380000000
0!
0#
0%
0'
#2390000000
1!
b00001101 $
1%
b00001101 (
b00001101 )
0*
#2400000000
0!
0%
#2410000000
1!
1%
#2420000000
0!
1#
0%
1'
#2430000000
1!
b00001110 $
1%
b00001110 (
b00001110 )
1*
#2440000000
0!
0#
0%
0'
#2450000000
1!
b00001111 $
1%
b00001111 (
b00001111 )
0*
#2460000000
0!
0%
#2470000000
1!
1%
#2480000000
0!
1#
0%
1'
#2490000000
1!
b00010000 $
1%
b00010000 (
b00010000 )
1*
#2500000000
0!
0#
0%
0'
#2510000000
1!
b00010001 $
1%
b00010001 (
b00010001 )
0*
#2520000000
0!
0%
#2530000000
1!
1%
#2540000000
0!
1#
0%
1'
#2550000000
1!
b00010010 $
1%
b00010010 (
b00010010 )
1*
#2560000000
0!
0#
0%
0'
#2570000000
1!
b00010011 $
1%
b00010011 (
b00010011 )
0*
#2580000000
0!
0%
#2590000000
1!
1%
#2600000000
0!
1#
0%
1'
#2610000000
1!
b00010100 $
1%
b00010100 (
b00010100 )
1*
#2620000000
0!
0#
0%
0'
#2630000000
1!
b00010101 $
1%
b00010101 (
b00010101 )
0*
#2640000000
0!
0%
#2650000000
1!
1%
#2660000000
0!
1#
0%
1'
#2670000000
1!
b00010110 $
1%
b00010110 (
b00010110 )
1*
#2680000000
0!
0#
0%
0'
#2690000000
1!
b00010111 $
1%
b00010111 (
b00010111 )
0*
#2700000000
0!
0%
#2710000000
1!
1%
#2720000000
0!
1#
0%
1'
#2730000000
1!
b00011000 $
1%
b00011000 (
b00011000 )
1*
#2740000000
0!
0#
0%
0'
#2750000000
1!
b00011001 $
1%
b00011001 (
b00011001 )
0*
#2760000000
0!
0%
#2770000000
1!
1%
#2780000000
0!
1#
0%
1'
#2790000000
1!
b00011010 $
1%
b00011010 (
b00011010 )
1*
#2800000000
0!
0#
0%
0'
#2810000000
1!
b00011011 $
1%
b00011011 (
b00011011 )
0*
#2820000000
0!
0%
#2830000000
1!
1%
#2840000000
0!
1#
0%
1'
#2850000000
1!
b00011100 $
1%
b00011100 (
b00011100 )
1*
#2860000000
0!
0#
0%
0'
#2870000000
1!
b00011101 $
1%
b00011101 (
b00011101 )
0*
#2880000000
0!
0%
#2890000000
1!
1%
#2900000000
0!
1#
0%
1'
#2910000000
1!
b00011110 $
1%
b00011110 (
b00011110 )
1*
#2920000000
0!
0#
0%
0'
#2930000000
1!
b00011111 $
1%
b00011111 (
b00011111 )
0*
#2940000000
0!
0%
#2950000000
1!
1%
#2960000000
0!
1#
0%
1'
#2970000000
1!
b00100000 $
1%
b00100000 (
b00100000 )
1*
#2980000000
0!
0#
0%
0'
#2990000000
1!
b00100001 $
1%
b00100001 (
b00100001 )
0*
#3000000000
0!
0"
0%
0&
#3010000000
1!
b00000000 $
1%
b00000000 (
b00000000 )
#3020000000
0!
1"
1#
0%
1&
1'
#3030000000
1!
b00000001 $
1%
b00000001 (
b00000001 )
1*
#3040000000
0!
0#
0%
0'
#3050000000
1!
b00000010 $
1%
b00000010 (
b00000010 )
0*
#3060000000
0!
0%
#3070000000
1!
1%
#3080000000
0!
1#
0%
1'
#3090000000
1!
b00000011 $
1%
b00000011 (
b00000011 )
1*
#3100000000
0!
0#
0%
0'
#3110000000
1!
b00000100 $
1%
b00000100 (
b00000100 )
0*
#3120000000
0!
0%
#3130000000
1!
1%
#3140000000
0!
1#
0%
1'
#3150000000
1!
b00000101 $
1%
b00000101 (
b00000101 )
1*
#3160000000
0!
0#
0%
0'
#3170000000
1!
b00000110 $
1%
b00000110 (
b00000110 )
0*
#3180000000
0!
0%
#3190000000
1!
1%
#3200000000
0!
1#
0%
1'
#3210000000
1!
b00000111 $
1%
b00000111 (
b00000111 )
1*
#3220000000
0!
0#
0%
0'
#3230000000
1!
b00001000 $
1%
b00001000 (
b00001000 )
0*
#3240000000
0!
0%
#3250000000
1!
1%
#3260000000
0!
1#
0%
1'
#3270000000
1!
b00001001 $
1%
b00001001 (
b00001001 )
1*
#3280000000
0!
0#
0%
0'
#3290000000
1!
b00001010 $
1%
b00001010 (
b00001010 )
0*
#3300000000
0!
0%
#3310000000
1!
1%
#3320000000
0!
1#
0%
1'
#3330000000
1!
b00001011 $
1%
b00001011 (
b00001011 )
1*
#3340000000
0!
0#
0%
0'
#3350000000
1!
b00001100 $
1%
b00001100 (
b00001100 )
0*
#3360000000
0!
0%
#3370000000
1!
1%
#3380000000
0!
1#
0%
1'
#3390000000
1!
b00001101 $
1%
b00001101 (
b00001101 )
1*
#3400000000
0!
0#
0%
0'
#3410000000
1!
b00001110 $
1%
b00001110 (
b00001110 )
0*
#3420000000
0!
0%
#3430000000
1!
1%
#3440000000
0!
1#
0%
1'
#3450000000
1!
b00001111 $
1%
b00001111 (
b00001111 )
1*
#3460000000
0!
0#
0%
0'
#3470000000
1!
b00010000 $
1%
b00010000 (
b00010000 )
0*
#3480000000
0!
0%
#3490000000
1!
1%
#3500000000
0!
1#
0%
1'
#3510000000
1!
b00010001 $
1%
b00010001 (
b00010001 )
1*
#3520000000
0!
0#
0%
0'
#3530000000
1!
b00010010 $
1%
b00010010 (
b00010010 )
0*
#3540000000
0!
0%
#3550000000
1!
1%
#3560000000
0!
1#
0%
1'
#3570000000
1!
b00010011 $
1%
b00010011 (
b00010011 )
1*
#3580000000
0!
0#
0%
0'
#3590000000
1!
b00010100 $
1%
b00010100 (
b00010100 )
0*
#3600000000
0!
0%
#3610000000
1!
1%
#3620000000
0!
1#
0%
1'
#3630000000
1!
b00010101 $
1%
b00010101 (
b00010101 )
1*
#3640000000
0!
0#
0%
0'
#3650000000
1!
b00010110 $
1%
b00010110 (
b00010110 )
0*
#3660000000
0!
0%
#3670000000
1!
1%
#3680000000
0!
1#
0%
1'
#3690000000
1!
b00010111 $
1%
b00010111 (
b00010111 )
1*
#3700000000
0!
0#
0%
0'
#3710000000
1!
b00011000 $
1%
b00011000 (
b00011000 )
0*
#3720000000
0!
0%
#3730000000
1!
1%
#3740000000
0!
1#
0%
1'
#3750000000
1!
b00011001 $
1%
b00011001 (
b00011001 )
1*
#3760000000
0!
0#
0%
0'
#3770000000
1!
b00011010 $
1%
b00011010 (
b00011010 )
0*
#3780000000
0!
0%
#3790000000
1!
1%
#3800000000
0!
1#
0%
1'
#3810000000
1!
b00011011 $
1%
b00011011 (
b00011011 )
1*
#3820000000
0!
0#
0%
0'
#3830000000
1!
b00011100 $
1%
b00011100 (
b00011100 )
0*
#3840000000
0!
0%
#3850000000
1!
1%
#3860000000
0!
1#
0%
1'
#3870000000
1!
b00011101 $
1%
b00011101 (
b00011101 )
1*
#3880000000
0!
0#
0%
0'
#3890000000
1!
b00011110 $
1%
b00011110 (
b00011110 )
0*
#3900000000
0!
0%
#3910000000
1!
1%
#3920000000
0!
1#
0%
1'
#3930000000
1!
b00011111 $
1%
b00011111 (
b00011111 )
1*
#3940000000
0!
0#
0%
0'
#3950000000
1!
b00100000 $
1%
b00100000 (
b00100000 )
0*
#3960000000
0!
0%
#3970000000
1!
1%
#3980000000
0!
1#
0%
1'
#3990000000
1!
b00100001 $
1%
b00100001 (
b00100001 )
1*
#4000000000
0!
0"
0#
0%
0&
0'
#4010000000
1!
b00000000 $
1%
b00000000 (
b00000000 )
0*
#4020000000
0!
1"
0%
1&
#4030000000
1!
1%
#4040000000
0!
1#
0%
1'
#4050000000
1!
b00000001 $
1%
b00000001 (
b00000001 )
1*
#4060000000
0!
0#
0%
0'
#4070000000
1!
b00000010 $
1%
b00000010 (
b00000010 )
0*
#4080000000
0!
0%
#4090000000
1!
1%
#4100000000
0!
1#
0%
1'
#4110000000
1!
b00000011 $
1%
b00000011 (
b00000011 )
1*
#4120000000
0!
0#
0%
0'
#4130000000
1!
b00000100 $
1%
b00000100 (
b00000100 )
0*
#4140000000
0!
0%
#4150000000
1!
1%
#4160000000
0!
1#
0%
1'
#4170000000
1!
b00000101 $
1%
b00000101 (
b00000101 )
1*
#4180000000
0!
0#
0%
0'
#4190000000
1!
b00000110 $
1%
b00000110 (
b00000110 )
0*
#4200000000
0!
0%
#4210000000
1!
1%
#4220000000
0!
1#
0%
1'
#4230000000
1!
b00000111 $
1%
b00000111 (
b00000111 )
1*
#4240000000
0!
0#
0%
0'
#4250000000
1!
b00001000 $
1%
b00001000 (
b00001000 )
0*
#4260000000
0!
0%
#4270000000
1!
1%
#4280000000
0!
1#
0%
1'
#4290000000
1!
b00001001 $
1%
b00001001 (
b00001001 )
1*
#4300000000
0!
0#
0%
0'
#4310000000
1!
b00001010 $
1%
b00001010 (
b00001010 )
0*
#4320000000
0!
0%
#4330000000
1!
1%
#4340000000
0!
1#
0%
1'
#4350000000
1!
b00001011 $
1%
b00001011 (
b00001011 )
1*
#4360000000
0!
0#
0%
0'
#4370000000
1!
b00001100 $
1%
b00001100 (
b00001100 )
0*
#4380000000
0!
0%
#4390000000
1!
1%
#4400000000
0!
1#
0%
1'
#4410000000
1!
b00001101 $
1%
b00001101 (
b00001101 )
1*
#4420000000
0!
0#
0%
0'
#4430000000
1!
b00001110 $
1%
b00001110 (
b00001110 )
0*
#4440000000
0!
0%
#4450000000
1!
1%
#4460000000
0!
1#
0%
1'
#4470000000
1!
b00001111 $
1%
b00001111 (
b00001111 )
1*
#4480000000
0!
0#
0%
0'
#4490000000
1!
b00010000 $
1%
b00010000 (
b00010000 )
0*
#4500000000
0!
0%
#4510000000
1!
1%
#4520000000
0!
1#
0%
1'
#4530000000
1!
b00010001 $
1%
b00010001 (
b00010001 )
1*
#4540000000
0!
0#
0%
0'
#4550000000
1!
b00010010 $
1%
b00010010 (
b00010010 )
0*
#4560000000
0!
0%
#4570000000
1!
1%
#4580000000
0!
1#
0%
1'
#4590000000
1!
b00010011 $
1%
b00010011 (
b00010011 )
1*
#4600000000
0!
0#
0%
0'
#4610000000
1!
b00010100 $
1%
b00010100 (
b00010100 )
0*
#4620000000
0!
0%
#4630000000
1!
1%
#4640000000
0!
1#
0%
1'
#4650000000
1!
b00010101 $
1%
b00010101 (
b00010101 )
1*
#4660000000
0!
0#
0%
0'
#4670000000
1!
b00010110 $
1%
b00010110 (
b00010110 )
0*
#4680000000
0!
0%
#4690000000
1!
1%
#4700000000
0!
1#
0%
1'
#4710000000
1!
b00010111 $
1%
b00010111 (
b00010111 )
1*
#4720000000
0!
0#
0%
0'
#4730000000
1!
b00011000 $
1%
b00011000 (
b00011000 )
0*
#4740000000
0!
0%
#4750000000
1!
1%
#4760000000
0!
1#
0%
1'
#4770000000
1!
b00011001 $
1%
b00011001 (
b00011001 )
1*
#4780000000
0!
0#
0%
0'
#4790000000
1!
b00011010 $
1%
b00011010 (
b00011010 )
0*
#4800000000
0!
0%
#4810000000
1!
1%
#4820000000
0!
1#
0%
1'
#4830000000
1!
b00011011 $
1%
b00011011 (
b00011011 )
1*
#4840000000
0!
0#
0%
0'
#4850000000
1!
b00011100 $
1%
b00011100 (
b00011100 )
0*
#4860000000
0!
0%
#4870000000
1!
1%
#4880000000
0!
1#
0%
1'
#4890000000
1!
b00011101 $
1%
b00011101 (
b00011101 )
1*
#4900000000
0!
0#
0%
0'
#4910000000
1!
b00011110 $
1%
b00011110 (
b00011110 )
0*
#4920000000
0!
0%
#4930000000
1!
1%
#4940000000
0!
1#
0%
1'
#4950000000
1!
b00011111 $
1%
b00011111 (
b00011111 )
1*
#4960000000
0!
0#
0%
0'
#4970000000
1!
b00100000 $
1%
b00100000 (
b00100000 )
0*
#4980000000
0!
0%
#4990000000
1!
1%
#5000000000
0!
0"
1#
0%
0&
1'
#5010000000
1!
b00000000 $
1%
b00000000 (
b00000000 )
1*
#5020000000
0!
1"
0#
0%
1&
0'
#5030000000
1!
b00000001 $
1%
b00000001 (
b00000001 )
0*
#5040000000
0!
0%
#5050000000
1!
1%
#5060000000
0!
1#
0%
1'
#5070000000
1!
b00000010 $
1%
b00000010 (
b00000010 )
1*
#5080000000
0!
0#
0%
0'
#5090000000
1!
b00000011 $
1%
b00000011 (
b00000011 )
0*
#5100000000
0!
0%
#5110000000
1!
1%
#5120000000
0!
1#
0%
1'
#5130000000
1!
b00000100 $
1%
b00000100 (
b00000100 )
1*
#5140000000
0!
0#
0%
0'
#5150000000
1!
b00000101 $
1%
b00000101 (
b00000101 )
0*
#5160000000
0!
0%
#5170000000
1!
1%
#5180000000
0!
1#
0%
1'
#5190000000
1!
b00000110 $
1%
b00000110 (
b00000110 )
1*
#5200000000
0!
0#
0%
0'
#5210000000
1!
b00000111 $
1%
b00000111 (
b00000111 )
0*
#5220000000
0!
0%
#5230000000
1!
1%
#5240000000
0!
1#
0%
1'
#5250000000
1!
b00001000 $
1%
b00001000 (
b00001000 )
1*
#5260000000
0!
0#
0%
0'
#5270000000
1!
b00001001 $
1%
b00001001 (
b00001001 )
0*
#5280000000
0!
0%
#5290000000
1!
1%
#5300000000
0!
1#
0%
1'
#5310000000
1!
b00001010 $
1%
b00001010 (
b00001010 )
1*
#5320000000
0!
0#
0%
0'
#5330000000
1!
b00001011 $
1%
b00001011 (
b00001011 )
0*
#5340000000
0!
0%
#5350000000
1!
1%
#5360000000
0!
1#
0%
1'
#5370000000
1!
b00001100 $
1%
b00001100 (
b00001100 )
1*
#5380000000
0!
0#
0%
0'
#5390000000
1!
b00001101 $
1%
b00001101 (
b00001101 )
0*
#5400000000
0!
0%
#5410000000
1!
1%
#5420000000
0!
1#
0%
1'
#5430000000
1!
b00001110 $
1%
b00001110 (
b00001110 )
1*
#5440000000
0!
0#
0%
0'
#5450000000
1!
b00001111 $
1%
b00001111 (
b00001111 )
0*
#5460000000
0!
0%
#5470000000
1!
1%
#5480000000
0!
1#
0%
1'
#5490000000
1!
b00010000 $
1%
b00010000 (
b00010000 )
1*
#5500000000
0!
0#
0%
0'
#5510000000
1!
b00010001 $
1%
b00010001 (
b00010001 )
0*
#5520000000
0!
0%
#5530000000
1!
1%
#5540000000
0!
1#
0%
1'
#5550000000
1!
b00010010 $
1%
b00010010 (
b00010010 )
1*
#5560000000
0!
0#
0%
0'
#5570000000
1!
b00010011 $
1%
b00010011 (
b00010011 )
0*
#5580000000
0!
0%
#5590000000
1!
1%
#5600000000
0!
1#
0%
1'
#5610000000
1!
b00010100 $
1%
b00010100 (
b00010100 )
1*
#5620000000
0!
0#
0%
0'
#5630000000
1!
b00010101 $
1%
b00010101 (
b00010101 )
0*
#5640000000
0!
0%
#5650000000
1!
1%
#5660000000
0!
1#
0%
1'
#5670000000
1!
b00010110 $
1%
b00010110 (
b00010110 )
1*
#5680000000
0!
0#
0%
0'
#5690000000
1!
b00010111 $
1%
b00010111 (
b00010111 )
0*
#5700000000
0!
0%
#5710000000
1!
1%
#5720000000
0!
1#
0%
1'
#5730000000
1!
b00011000 $
1%
b00011000 (
b00011000 )
1*
#5740000000
0!
0#
0%
0'
#5750000000
1!
b00011001 $
1%
b00011001 (
b00011001 )
0*
#5760000000
0!
0%
#5770000000
1!
1%
#5780000000
0!
1#
0%
1'
#5790000000
1!
b00011010 $
1%
b00011010 (
b00011010 )
1*
#5800000000
0!
0#
0%
0'
#5810000000
1!
b00011011 $
1%
b00011011 (
b00011011 )
0*
#5820000000
0!
0%
#5830000000
1!
1%
#5840000000
0!
1#
0%
1'
#5850000000
1!
b00011100 $
1%
b00011100 (
b00011100 )
1*
#5860000000
0!
0#
0%
0'
#5870000000
1!
b00011101 $
1%
b00011101 (
b00011101 )
0*
#5880000000
0!
0%
#5890000000
1!
1%
#5900000000
0!
1#
0%
1'
#5910000000
1!
b00011110 $
1%
b00011110 (
b00011110 )
1*
#5920000000
0!
0#
0%
0'
#5930000000
1!
b00011111 $
1%
b00011111 (
b00011111 )
0*
#5940000000
0!
0%
#5950000000
1!
1%
#5960000000
0!
1#
0%
1'
#5970000000
1!
b00100000 $
1%
b00100000 (
b00100000 )
1*
#5980000000
0!
0#
0%
0'
#5990000000
1!
b00100001 $
1%
b00100001 (
b00100001 )
0*
#6000000000
0!
0"
0%
0&
#6010000000
1!
b00000000 $
1%
b00000000 (
b00000000 )
#6020000000
0!
1"
1#
0%
1&
1'
#6030000000
1!
b00000001 $
1%
b00000001 (
b00000001 )
1*
#6040000000
0!
0#
0%
0'
#6050000000
1!
b00000010 $
1%
b00000010 (
b00000010 )
0*
#6060000000
0!
0%
#6070000000
1!
1%
#6080000000
0!
1#
0%
1'
#6090000000
1!
b00000011 $
1%
b00000011 (
b00000011 )
1*
#6100000000
0!
0#
0%
0'
#6110000000
1!
b00000100 $
1%
b00000100 (
b00000100 )
0*
#6120000000
0!
0%
#6130000000
1!
1%
#6140000000
0!
1#
0%
1'
#6150000000
1!
b00000101 $
1%
b00000101 (
b00000101 )
1*
#6160000000
0!
0#
0%
0'
#6170000000
1!
b00000110 $
1%
b00000110 (
b00000110 )
0*
#6180000000
0!
0%
#6190000000
1!
1%
#6200000000
0!
1#
0%
1'
#6210000000
1!
b00000111 $
1%
b00000111 (
b00000111 )
1*
#6220000000
0!
0#
0%
0'
#6230000000
1!
b00001000 $
1%
b00001000 (
b00001000 )
0*
#6240000000
0!
0%
#6250000000
1!
1%
#6260000000
0!
1#
0%
1'
#6270000000
1!
b00001001 $
1%
b00001001 (
b00001001 )
1*
#6280000000
0!
0#
0%
0'
#6290000000
1!
b00001010 $
1%
b00001010 (
b00001010 )
0*
#6300000000
0!
0%
#6310000000
1!
1%
#6320000000
0!
1#
0%
1'
#6330000000
1!
b00001011 $
1%
b00001011 (
b00001011 )
1*
#6340000000
0!
0#
0%
0'
#6350000000
1!
b00001100 $
1%
b00001100 (
b00001100 )
0*
#6360000000
0!
0%
#6370000000
1!
1%
#6380000000
0!
1#
0%
1'
#6390000000
1!
b00001101 $
1%
b00001101 (
b00001101 )
1*
#6400000000
0!
0#
0%
0'
#6410000000
1!
b00001110 $
1%
b00001110 (
b00001110 )
0*
#6420000000
0!
0%
#6430000000
1!
1%
#6440000000
0!
1#
0%
1'
#6450000000
1!
b00001111 $
1%
b00001111 (
b00001111 )
1*
#6460000000
0!
0#
0%
0'
#6470000000
1!
b00010000 $
1%
b00010000 (
b00010000 )
0*
#6480000000
0!
0%
#6490000000
1!
1%
#6500000000
0!
1#
0%
1'
#6510000000
1!
b00010001 $
1%
b00010001 (
b00010001 )
1*
#6520000000
0!
0#
0%
0'
#6530000000
1!
b00010010 $
1%
b00010010 (
b00010010 )
0*
#6540000000
0!
0%
#6550000000
1!
1%
#6560000000
0!
1#
0%
1'
#6570000000
1!
b00010011 $
1%
b00010011 (
b00010011 )
1*
#6580000000
0!
0#
0%
0'
#6590000000
1!
b00010100 $
1%
b00010100 (
b00010100 )
0*
#6600000000
0!
0%
#6610000000
1!
1%
#6620000000
0!
1#
0%
1'
#6630000000
1!
b00010101 $
1%
b00010101 (
b00010101 )
1*
#6640000000
0!
0#
0%
0'
